{
  "$schema": "https://json.schemastore.org/nest-cli",
  "collection": "@nestjs/schematics",
  "sourceRoot": "src",
  "compilerOptions": {
    "deleteOutDir": true,
    "webpack": true
  },
  "projects": {
    "file-genertion": {
      "type": "library",
      "root": "libs/file-genertion",
      "entryFile": "index",
      "sourceRoot": "libs/file-genertion/src",
      "compilerOptions": {
        "tsConfigPath": "libs/file-genertion/tsconfig.lib.json"
      }
    }
  }
}